michael decrescenzo - The Mandelbrot set, in R, with recursion instead of iteration
…
This post wouldn’t be complete if we didn’t plot the fractal. As it happens, the recursive implementation of the Mandelbrot function makes this whole process much simpler as well.

First, let’s make a grid of data (x and y), and a variable C where we represent y as an imaginary dimension.

library("dplyr")
library("tidyr")

d = crossing(
        x = seq(-2, 2, length.out = 500),
        y = x
    ) |>
    mutate(C = complex(real = x, imag = y)) |>
    print()
## # A tibble: 250,000 × 3
##        x     y C           
##    <dbl> <dbl> <cpl>       
##  1    -2 -2    -2-2.000000i
##  2    -2 -1.99 -2-1.991984i
##  3    -2 -1.98 -2-1.983968i
##  4    -2 -1.98 -2-1.975952i
##  5    -2 -1.97 -2-1.967936i
##  6    -2 -1.96 -2-1.959920i
##  7    -2 -1.95 -2-1.951904i
##  8    -2 -1.94 -2-1.943888i
##  9    -2 -1.94 -2-1.935872i
## 10    -2 -1.93 -2-1.927856i
## # … with 249,990 more rows

One upside of the design of our mandelbrot function is that, at least in R, it is automatically vectorized. As long as iterations is an integer, we can pass data of various shapes to coord and get reasonable results. In this case, we pass the entire C column from our data frame as a vector.

d = d |>
    mutate(
        mand = mandelbrot(C, iterations = 10),
        projected_value = exp(-abs(mand))
    ) |>
    print()
## # A tibble: 250,000 × 5
##        x     y C            mand     projected_value
##    <dbl> <dbl> <cpl>        <cpl>              <dbl>
##  1    -2 -2    -2-2.000000i NaN-Infi               0
##  2    -2 -1.99 -2-1.991984i NaN+Infi               0
##  3    -2 -1.98 -2-1.983968i NaN+Infi               0
##  4    -2 -1.98 -2-1.975952i NaN-Infi               0
##  5    -2 -1.97 -2-1.967936i NaN+Infi               0
##  6    -2 -1.96 -2-1.959920i NaN+Infi               0
##  7    -2 -1.95 -2-1.951904i NaN-Infi               0
##  8    -2 -1.94 -2-1.943888i NaN-Infi               0
##  9    -2 -1.94 -2-1.935872i NaN+Infi               0
## 10    -2 -1.93 -2-1.927856i NaN+Infi               0
## # … with 249,990 more rows
…
