Non-flat implications of flat priors – michael decrescenzo
…
Here we create the function f, generate some Normal draws, and then apply f to those draws.

sigma <- 1 / 2
mu <- 6
f <- function(x) { mu + sigma * x }

d = tibble::tibble(
    theta = rnorm(10000, mean = 0, sd = 1),
    f_theta = f(theta)
)

print(d)
## # A tibble: 10,000 × 2
##      theta f_theta
##      <dbl>   <dbl>
##  1  0.0593    6.03
##  2 -0.268     5.87
##  3 -0.987     5.51
##  4 -1.06      5.47
##  5  0.0496    6.02
##  6  1.39      6.69
##  7  0.287     6.14
##  8  0.226     6.11
##  9 -1.39      5.30
## 10  0.103     6.05
## # ℹ 9,990 more rows
…
This means \(\varepsilon\) and \(\pi\) are parameters to be estimated. Let’s say we give these parameters independent, flat priors on the \([0,1]\) interval; what would be the implied prior for \(N\varepsilon\pi\)? Let’s simulate it again. We use a \(\mathrm{Beta}(1,1)\) prior for each probability parameter. The Beta family is commonly used to model unknown probabilities3, and the \(\mathrm{Beta}(1, 1)\) prior is a special case that gives flat density to all probability values. But when we multiply all of these terms together, the result will not be flat at all.

# This is a real value from the data
N <- 229625

# simulate Beta priors for pi and epsilon
# calculate N . eps . pi
v <- tibble::tibble(
  pi = rbeta(100000, 1, 1),
  epsilon = rbeta(100000, 1, 1),
  pop_estimate = N * epsilon * pi
) 

print(v)
## # A tibble: 100,000 × 3
##        pi epsilon pop_estimate
##     <dbl>   <dbl>        <dbl>
##  1 0.129  0.287          8512.
##  2 0.360  0.757         62562.
##  3 0.0607 0.191          2658.
##  4 0.879  0.798        161070.
##  5 0.0813 0.227          4235.
##  6 0.280  0.978         62793.
##  7 0.821  0.651        122760.
##  8 0.952  0.613        134013.
##  9 0.923  0.00709        1503.
## 10 0.973  0.605        135287.
## # ℹ 99,990 more rows
…
Because this is causal inference and we want to be principled agnostics, we employ some default thinking and give each group mean a flat prior, estimating the difference in means after we have the means. But if each group mean has a flat prior, what would be the implied prior for the difference in means? Not flat! We simulate another example, giving a flat prior to each mean and pushing the uncertainty into the treatment effect.

# simulate means and calculate difference
rct <- tibble::tibble(
  mu_0 = rbeta(1000000, 1, 1), 
  mu_1 = rbeta(1000000, 1, 1),
  trt = mu_1 - mu_0
)

print(rct)
## # A tibble: 1,000,000 × 3
##     mu_0   mu_1      trt
##    <dbl>  <dbl>    <dbl>
##  1 0.316 0.0316 -0.284  
##  2 0.327 0.329   0.00182
##  3 0.184 0.851   0.667  
##  4 0.596 0.0169 -0.579  
##  5 0.696 0.561  -0.135  
##  6 0.171 0.908   0.737  
##  7 0.747 0.764   0.0173 
##  8 0.318 0.382   0.0638 
##  9 0.891 0.768  -0.123  
## 10 0.779 0.0576 -0.721  
## # ℹ 999,990 more rows
…
