michael decrescenzo - currr: a functional grammar for data frame operations.
…
If you know dplyr, you know almost everything you need to know about currr. There are only two things going on here.

currr code is just curried dplyr code.

currr functions are meant to be composed without evaluating them immediately.

currr code is just curried dplyr code.

“Currying” a function means turning a function of many arguments into a function of fewer arguments. I have written about this before, but we will explain it plenty here too.1

dplyr functions like filter and select have analogous currr functions like filtering and selecting. The currr functions create curried versions of the dplyr functions. Let me give you an example. Here is how we can use dplyr::filter to keep only known male and female penguins in the palmerpenguins dataset.

filter(penguins, sex %in% c("male", "female"))
## # A tibble: 333 × 8
##    species island    bill_length_mm bill_depth_mm flipper_length_mm body_mass_g
##    <fct>   <fct>              <dbl>         <dbl>             <int>       <int>
##  1 Adelie  Torgersen           39.1          18.7               181        3750
##  2 Adelie  Torgersen           39.5          17.4               186        3800
##  3 Adelie  Torgersen           40.3          18                 195        3250
##  4 Adelie  Torgersen           36.7          19.3               193        3450
##  5 Adelie  Torgersen           39.3          20.6               190        3650
##  6 Adelie  Torgersen           38.9          17.8               181        3625
##  7 Adelie  Torgersen           39.2          19.6               195        4675
##  8 Adelie  Torgersen           41.1          17.6               182        3200
##  9 Adelie  Torgersen           38.6          21.2               191        3800
## 10 Adelie  Torgersen           34.6          21.1               198        4400
## # ℹ 323 more rows
## # ℹ 2 more variables: sex <fct>, year <int>
…
And instead of getting a data frame back, I get a new function. That resulting function would take me from data frame to data frame, but I can pass that data frame some time later. I have curried the filter function with the argument sex %in% c("male", "female"). In other words, I created a version of the filter function with that boolean condition pre-specified. When I call that function later, it will invoke the boolean expression without me specifying it later.

To assure you how it works, I will build the same function and then pass the penguins data to the curried function. I will get the same result as the original, fully-specified filter call.

flt_sex = filtering(sex %in% c("male", "female"))
flt_sex(penguins)
## # A tibble: 333 × 8
##    species island    bill_length_mm bill_depth_mm flipper_length_mm body_mass_g
##    <fct>   <fct>              <dbl>         <dbl>             <int>       <int>
##  1 Adelie  Torgersen           39.1          18.7               181        3750
##  2 Adelie  Torgersen           39.5          17.4               186        3800
##  3 Adelie  Torgersen           40.3          18                 195        3250
##  4 Adelie  Torgersen           36.7          19.3               193        3450
##  5 Adelie  Torgersen           39.3          20.6               190        3650
##  6 Adelie  Torgersen           38.9          17.8               181        3625
##  7 Adelie  Torgersen           39.2          19.6               195        4675
##  8 Adelie  Torgersen           41.1          17.6               182        3200
##  9 Adelie  Torgersen           38.6          21.2               191        3800
## 10 Adelie  Torgersen           34.6          21.1               198        4400
## # ℹ 323 more rows
## # ℹ 2 more variables: sex <fct>, year <int>
…
