michael decrescenzo - Scraping the ‘S.C.U.M.’ data from ‘Kill James Bond’
…
I could do one better. Because this function returns a list of records, we could turn it into a data frame directly.

library(dplyr)

df = home_url |>
    get_film_urls() |>
    lapply(get_movie_data) |>
    bind_rows() |>
    print()
## # A tibble: 27 × 9
##    title   actor  year smarm cultural_insensitivity unprovoked_violence misogyny
##    <chr>   <chr> <dbl> <dbl>                  <dbl>               <dbl>    <dbl>
##  1 Dr No   Sean…  1962     5                      7                   2        3
##  2 From R… Sean…  1963     3                      5                   2        6
##  3 Goldfi… Sean…  1964     7                      2                   6        8
##  4 Thunde… Sean…  1965     7                      3                   2        7
##  5 You On… Sean…  1967     5                      8                   2        7
##  6 On Her… Geor…  1969     2                      1                   1        4
##  7 Diamon… Sean…  1971     4                      6                   5        3
##  8 Live a… Roge…  1973     7                      9                   5        7
##  9 The Ma… Roge…  1974     5                      6                   4        7
## 10 The Sp… Roge…  1977     5                      3                   6        4
## # ℹ 17 more rows
## # ℹ 2 more variables: scum_total_raw <dbl>, scum_total_calc <dbl>
…
