Dreams of a “Lazyverse” – michael decrescenzo
…
But the Tidyverse is also missing something for me. Something major.

The functional style

the tidyverse advertises itself as a “functional” interface for data manipulation in r. and compared to the object oriented style of python (pandas in particular), that’s certainly true. it is much easier to combine tidy functions (dplyr and tidyr “verbs” in particular) than it is to do, frankly, anything at all in pandas. and i write python every day for my job.

But taking a wider view, the “functional” interfaces of the Tidyverse have some key limitations. Take the following example. I want to filter the palmerpenguins data to the “Adelie” species only.

library(palmerpenguins)
library(dplyr)

penguins |> 
    filter(species == "Adelie")
## # A tibble: 152 × 8
##    species island    bill_length_mm bill_depth_mm flipper_length_mm body_mass_g
##    <fct>   <fct>              <dbl>         <dbl>             <int>       <int>
##  1 Adelie  Torgersen           39.1          18.7               181        3750
##  2 Adelie  Torgersen           39.5          17.4               186        3800
##  3 Adelie  Torgersen           40.3          18                 195        3250
##  4 Adelie  Torgersen           NA            NA                  NA          NA
##  5 Adelie  Torgersen           36.7          19.3               193        3450
##  6 Adelie  Torgersen           39.3          20.6               190        3650
##  7 Adelie  Torgersen           38.9          17.8               181        3625
##  8 Adelie  Torgersen           39.2          19.6               195        4675
##  9 Adelie  Torgersen           34.1          18.1               193        3475
## 10 Adelie  Torgersen           42            20.2               190        4250
## # ℹ 142 more rows
## # ℹ 2 more variables: sex <fct>, year <int>
…
So what we have is a clash between two tenets of the Tidyverse interface: functional style and unquoted expressions. I cannot write the function that I want to apply to my data. Not that easily, at least.

I could write the function with a “base” style…

# clunkier
adelie_only = function(d) {
    condition = (d$species == "Adelie")
    d[condition, ]
}

# but at least it works
adelie_only(penguins)
## # A tibble: 152 × 8
##    species island    bill_length_mm bill_depth_mm flipper_length_mm body_mass_g
##    <fct>   <fct>              <dbl>         <dbl>             <int>       <int>
##  1 Adelie  Torgersen           39.1          18.7               181        3750
##  2 Adelie  Torgersen           39.5          17.4               186        3800
##  3 Adelie  Torgersen           40.3          18                 195        3250
##  4 Adelie  Torgersen           NA            NA                  NA          NA
##  5 Adelie  Torgersen           36.7          19.3               193        3450
##  6 Adelie  Torgersen           39.3          20.6               190        3650
##  7 Adelie  Torgersen           38.9          17.8               181        3625
##  8 Adelie  Torgersen           39.2          19.6               195        4675
##  9 Adelie  Torgersen           34.1          18.1               193        3475
## 10 Adelie  Torgersen           42            20.2               190        4250
## # ℹ 142 more rows
## # ℹ 2 more variables: sex <fct>, year <int>
…
Here it is in action. I delay the evaluation of filter and pass some arguments to filter on. The result is a new function.

# creates a function
adelie_only = delay_filter(species == "Adelie")
class(adelie_only)
## [1] "function"

And only when I pass a dataset is the expression species == "Adelie" evaluated.

adelie_only(penguins)
## # A tibble: 152 × 8
##    species island    bill_length_mm bill_depth_mm flipper_length_mm body_mass_g
##    <fct>   <fct>              <dbl>         <dbl>             <int>       <int>
##  1 Adelie  Torgersen           39.1          18.7               181        3750
##  2 Adelie  Torgersen           39.5          17.4               186        3800
##  3 Adelie  Torgersen           40.3          18                 195        3250
##  4 Adelie  Torgersen           NA            NA                  NA          NA
##  5 Adelie  Torgersen           36.7          19.3               193        3450
##  6 Adelie  Torgersen           39.3          20.6               190        3650
##  7 Adelie  Torgersen           38.9          17.8               181        3625
##  8 Adelie  Torgersen           39.2          19.6               195        4675
##  9 Adelie  Torgersen           34.1          18.1               193        3475
## 10 Adelie  Torgersen           42            20.2               190        4250
## # ℹ 142 more rows
## # ℹ 2 more variables: sex <fct>, year <int>
…
These delayed verbs let us pre-supply arguments without data.

# create the function
adelie_only = dfilter(species == "Adelie")

And then call these functions with whatever data we want.

adelie_only(penguins)
## # A tibble: 152 × 8
##    species island    bill_length_mm bill_depth_mm flipper_length_mm body_mass_g
##    <fct>   <fct>              <dbl>         <dbl>             <int>       <int>
##  1 Adelie  Torgersen           39.1          18.7               181        3750
##  2 Adelie  Torgersen           39.5          17.4               186        3800
##  3 Adelie  Torgersen           40.3          18                 195        3250
##  4 Adelie  Torgersen           NA            NA                  NA          NA
##  5 Adelie  Torgersen           36.7          19.3               193        3450
##  6 Adelie  Torgersen           39.3          20.6               190        3650
##  7 Adelie  Torgersen           38.9          17.8               181        3625
##  8 Adelie  Torgersen           39.2          19.6               195        4675
##  9 Adelie  Torgersen           34.1          18.1               193        3475
## 10 Adelie  Torgersen           42            20.2               190        4250
## # ℹ 142 more rows
## # ℹ 2 more variables: sex <fct>, year <int>

Let’s verify that some other delayed verbs work as expected.

# delay mutate: convert species to uppercase
upper_species = dmutate(species = toupper(species))
upper_species(penguins)
## # A tibble: 344 × 8
##    species island    bill_length_mm bill_depth_mm flipper_length_mm body_mass_g
##    <chr>   <fct>              <dbl>         <dbl>             <int>       <int>
##  1 ADELIE  Torgersen           39.1          18.7               181        3750
##  2 ADELIE  Torgersen           39.5          17.4               186        3800
##  3 ADELIE  Torgersen           40.3          18                 195        3250
##  4 ADELIE  Torgersen           NA            NA                  NA          NA
##  5 ADELIE  Torgersen           36.7          19.3               193        3450
##  6 ADELIE  Torgersen           39.3          20.6               190        3650
##  7 ADELIE  Torgersen           38.9          17.8               181        3625
##  8 ADELIE  Torgersen           39.2          19.6               195        4675
##  9 ADELIE  Torgersen           34.1          18.1               193        3475
## 10 ADELIE  Torgersen           42            20.2               190        4250
## # ℹ 334 more rows
## # ℹ 2 more variables: sex <fct>, year <int>

# delay select: only columns that start with "bill"
bill_cols = dselect(starts_with("bill"))
bill_cols(penguins)
## # A tibble: 344 × 2
##    bill_length_mm bill_depth_mm
##             <dbl>         <dbl>
##  1           39.1          18.7
##  2           39.5          17.4
##  3           40.3          18  
##  4           NA            NA  
##  5           36.7          19.3
##  6           39.3          20.6
##  7           38.9          17.8
##  8           39.2          19.6
##  9           34.1          18.1
## 10           42            20.2
## # ℹ 334 more rows
…
